Fri Jan 24 17:44:11 CET 2020
Preloading tcmalloc_minimal.so
Py:Athena            INFO including file "AthenaCommon/Preparation.py"
Py:Athena            INFO using release [WorkDir-22.0.9] [x86_64-centos7-gcc8-opt] [atlas-work3g/b1aa4d492c9] -- built on [2020-01-24T1658]
Py:Athena            INFO including file "AthenaCommon/Atlas.UnixStandardJob.py"
Py:Athena            INFO executing ROOT6Setup
Py:Athena            INFO including file "AthenaCommon/Execution.py"
Py:Athena            INFO including file "ByteStreamTest/BadEvents.py"
Py:ConfigurableDb    INFO Read module info for 5625 configurables from 37 genConfDb files
Py:ConfigurableDb    INFO No duplicates have been found: that's good !
Py:Athena            INFO including file "AthenaCommon/runbatch.py"
Warning in <TInterpreter::ReadRootmapFile>: class  CP::IMuonCalibrationAndSmearingTool found in libMuonMomentumCorrectionsDict.so  is already in libMuonAnalysisInterfacesDict.so 
Warning in <TInterpreter::ReadRootmapFile>: class  CP::IMuonSelectionTool found in libMuonSelectorToolsDict.so  is already in libMuonAnalysisInterfacesDict.so 
ApplicationMgr       INFO Updating Gaudi::PluginService::SetDebug(level) to level= 'PluginDebugLevel':0
ApplicationMgr       INFO Updating Gaudi::PluginService::SetDebug(level) to level= 'PluginDebugLevel':0
ApplicationMgr    SUCCESS 
====================================================================================================================================
                                                   Welcome to ApplicationMgr (GaudiCoreSvc v33r0)
                                          running on lxplus730.cern.ch on Fri Jan 24 17:44:20 2020
====================================================================================================================================
ApplicationMgr       INFO Application Manager Configured successfully
ApplicationMgr       INFO Updating Gaudi::PluginService::SetDebug(level) to level= 'PluginDebugLevel':0
StatusCodeSvc        INFO initialize
AthDictLoaderSvc     INFO in initialize...
AthDictLoaderSvc     INFO acquired Dso-registry
ClassIDSvc           INFO  getRegistryEntries: read 3459 CLIDRegistry entries for module ALL
CoreDumpSvc          INFO install f-a-t-a-l handler... (flag = -1)
CoreDumpSvc          INFO Handling signals: 11(Segmentation fault) 7(Bus error) 4(Illegal instruction) 8(Floating point exception) 
AthenaEventLoopMgr   INFO Initializing AthenaEventLoopMgr - package version AthenaServices-00-00-00
ByteStreamAddre...  DEBUG Property update for OutputLevel : new value = 2
ByteStreamAddre...   INFO Initializing ByteStreamAddressProviderSvc - package version ByteStreamCnvSvcBase-00-00-00
ByteStreamAddre...  DEBUG Service base class initialized successfully
ByteStreamAddre...   INFO initialized 
ByteStreamAddre...   INFO -- Will fill Store with id =  0
MetaDataSvc          INFO Initializing MetaDataSvc - package version AthenaServices-00-00-00
AthenaPoolCnvSvc     INFO Initializing AthenaPoolCnvSvc - package version AthenaPoolCnvSvc-00-00-00
PoolSvc              INFO io_register[PoolSvc](xmlcatalog_file:PoolFileCatalog.xml) [ok]
PoolSvc              INFO Set connectionsvc retry/timeout/IDLE timeout to  'ConnectionRetrialPeriod':300/ 'ConnectionRetrialTimeOut':3600/ 'ConnectionTimeOut':5 seconds with connection cleanup disabled
PoolSvc              INFO Frontier compression level set to 5
DBReplicaSvc         INFO Frontier server at (serverurl=http://atlasfrontier-local.cern.ch:8000/atlr)(serverurl=http://atlasfrontier-ai.cern.ch:8000/atlr)(serverurl=http://ccfrontier.in2p3.fr:23128/ccin2p3-AtlasFrontier)(proxyurl=http://ca-proxy-atlas.cern.ch:3128)(proxyurl=http://ca-proxy-meyrin.cern.ch:3128)(proxyurl=http://ca-proxy.cern.ch:3128)(proxyurl=http://atlasbpfrontier.cern.ch:3127)(proxyurl=http://atlasbpfrontier.fnal.gov:3127) will be considered for COOL data
DBReplicaSvc         INFO Read replica configuration from /cvmfs/atlas-nightlies.cern.ch/repo/sw/master--py3/2020-01-23T2132/Athena/22.0.9/InstallArea/x86_64-centos7-gcc8-opt/share/dbreplica.config
DBReplicaSvc         INFO Total of 10 servers found for host lxplus730.cern.ch [ATLF ATLAS_COOLPROD atlas_dd ATLAS_CONFIG INT8R INTR ATONR_COOL ATONR_CONF DEVDB11 ATLF ]
PoolSvc              INFO Successfully setup replica sorting algorithm
PoolSvc              INFO Setting up APR FileCatalog and Streams
PoolSvc              INFO POOL WriteCatalog is xmlcatalog_file:PoolFileCatalog.xml
DbSession            INFO     Open     DbSession    
Domain[ROOT_All]     INFO >   Access   DbDomain     READ      [ROOT_All] 
ToolSvc.ByteStr...   INFO Initializing ToolSvc.ByteStreamMetadataTool - package version ByteStreamCnvSvc-00-00-00
MetaDataSvc          INFO Found MetaDataTools = PublicToolHandleArray(['IOVDbMetaDataTool','ByteStreamMetadataTool'])
ByteStreamAddre...  DEBUG in preLoadAddress
ByteStreamAddre...  DEBUG StoreID = 3 does not match required id (0) skip
ByteStreamAddre...  DEBUG in preLoadAddress
ByteStreamAddre...  DEBUG StoreID = 3 does not match required id (0) skip
ByteStreamAddre...  DEBUG in preLoadAddress
EventSelector       DEBUG Property update for OutputLevel : new value = 2
EventSelector       DEBUG Initializing EventSelector
EventSelector       DEBUG Service base class initialized successfully
ByteStreamInputSvc   INFO Initializing ByteStreamInputSvc - package version ByteStreamCnvSvc-00-00-00
ROBDataProviderSvc   INFO Initializing ROBDataProviderSvc - package version ByteStreamCnvSvcBase-00-00-00
ROBDataProviderSvc   INFO  ---> Filter out empty ROB fragments                               =  'filterEmptyROB':False
ROBDataProviderSvc   INFO  ---> Filter out specific ROBs by Status Code: # ROBs = 0
ROBDataProviderSvc   INFO  ---> Filter out Sub Detector ROBs by Status Code: # Sub Detectors = 0
ByteStreamInputSvcWARNING MaxBadEvents property has been moved to EventSelector, please use svgMgr.EventSelector.MaxBadEvents instead
EventSelector        INFO Retrieved MaxBadEvents= 'MaxBadEvents':10 from ByteStreamInputSvc
EventSelector        INFO reinitialization...
AthenaEventLoopMgr   INFO Setup EventSelector service EventSelector
ApplicationMgr       INFO Application Manager Initialized successfully
EventSelector       DEBUG Calling EventSelectorByteStream::start()
ClassIDSvc           INFO  getRegistryEntries: read 3112 CLIDRegistry entries for module ALL
ByteStreamInputSvc   INFO Picked valid file: /cvmfs/atlas-nightlies.cern.ch/repo/data/data-art/TrigP1Test/data17_13TeV.00327265.physics_EnhancedBias.merge.RAW._lb0100._SFO-1._0001.1
EventSelector       DEBUG Opened block/file /cvmfs/atlas-nightlies.cern.ch/repo/data/data-art/TrigP1Test/data17_13TeV.00327265.physics_EnhancedBias.merge.RAW._lb0100._SFO-1._0001.1
ApplicationMgr       INFO Application Manager Started successfully
ByteStreamCnvSvc    DEBUG Property update for OutputLevel : new value = 2
EventPersistenc...   INFO Added successfully Conversion service:ByteStreamCnvSvc
EventInfoByteSt...   INFO IsSimulation : 0
EventInfoByteSt...   INFO IsTestbeam : 0
EventInfoByteSt...   INFO IsCalibration : 0
AthenaEventLoopMgr   INFO   ===>>>  start of run 327265    <<<===
AthenaEventLoopMgr   INFO   ===>>>  start processing event #186525031, run #327265 0 events processed so far  <<<===
AthenaEventLoopMgr   INFO   ===>>>  done processing event #186525031, run #327265 1 events processed so far  <<<===
AthenaEventLoopMgr   INFO   ===>>>  start processing event #186524665, run #327265 1 events processed so far  <<<===
AthenaEventLoopMgr   INFO   ===>>>  done processing event #186524665, run #327265 2 events processed so far  <<<===
AthenaEventLoopMgr   INFO   ===>>>  start processing event #186542447, run #327265 2 events processed so far  <<<===
AthenaEventLoopMgr   INFO   ===>>>  done processing event #186542447, run #327265 3 events processed so far  <<<===
AthenaEventLoopMgr   INFO   ===>>>  start processing event #186543405, run #327265 3 events processed so far  <<<===
AthenaEventLoopMgr   INFO   ===>>>  done processing event #186543405, run #327265 4 events processed so far  <<<===
AthenaEventLoopMgr   INFO   ===>>>  start processing event #186548387, run #327265 4 events processed so far  <<<===
AthenaEventLoopMgr   INFO   ===>>>  done processing event #186548387, run #327265 5 events processed so far  <<<===
AthenaEventLoopMgr   INFO   ===>>>  start processing event #186515186, run #327265 5 events processed so far  <<<===
AthenaEventLoopMgr   INFO   ===>>>  done processing event #186515186, run #327265 6 events processed so far  <<<===
AthenaEventLoopMgr   INFO   ===>>>  start processing event #186556019, run #327265 6 events processed so far  <<<===
AthenaEventLoopMgr   INFO   ===>>>  done processing event #186556019, run #327265 7 events processed so far  <<<===
AthenaEventLoopMgr   INFO   ===>>>  start processing event #186542866, run #327265 7 events processed so far  <<<===
AthenaEventLoopMgr   INFO   ===>>>  done processing event #186542866, run #327265 8 events processed so far  <<<===
AthenaEventLoopMgr   INFO   ===>>>  start processing event #186537901, run #327265 8 events processed so far  <<<===
AthenaEventLoopMgr   INFO   ===>>>  done processing event #186537901, run #327265 9 events processed so far  <<<===
AthenaEventLoopMgr   INFO   ===>>>  start processing event #186517811, run #327265 9 events processed so far  <<<===
AthenaEventLoopMgr   INFO   ===>>>  done processing event #186517811, run #327265 10 events processed so far  <<<===
AthenaEventLoopMgr   INFO   ===>>>  start processing event #186534221, run #327265 10 events processed so far  <<<===
AthenaEventLoopMgr   INFO   ===>>>  done processing event #186534221, run #327265 11 events processed so far  <<<===
AthenaEventLoopMgr   INFO   ===>>>  start processing event #186540986, run #327265 11 events processed so far  <<<===
AthenaEventLoopMgr   INFO   ===>>>  done processing event #186540986, run #327265 12 events processed so far  <<<===
AthenaEventLoopMgr   INFO   ===>>>  start processing event #186535104, run #327265 12 events processed so far  <<<===
AthenaEventLoopMgr   INFO   ===>>>  done processing event #186535104, run #327265 13 events processed so far  <<<===
AthenaEventLoopMgr   INFO   ===>>>  start processing event #186539903, run #327265 13 events processed so far  <<<===
AthenaEventLoopMgr   INFO   ===>>>  done processing event #186539903, run #327265 14 events processed so far  <<<===
AthenaEventLoopMgr   INFO   ===>>>  start processing event #186552713, run #327265 14 events processed so far  <<<===
AthenaEventLoopMgr   INFO   ===>>>  done processing event #186552713, run #327265 15 events processed so far  <<<===
AthenaEventLoopMgr   INFO   ===>>>  start processing event #186524730, run #327265 15 events processed so far  <<<===
AthenaEventLoopMgr   INFO   ===>>>  done processing event #186524730, run #327265 16 events processed so far  <<<===
AthenaEventLoopMgr   INFO   ===>>>  start processing event #186547632, run #327265 16 events processed so far  <<<===
AthenaEventLoopMgr   INFO   ===>>>  done processing event #186547632, run #327265 17 events processed so far  <<<===
AthenaEventLoopMgr   INFO   ===>>>  start processing event #186555621, run #327265 17 events processed so far  <<<===
AthenaEventLoopMgr   INFO   ===>>>  done processing event #186555621, run #327265 18 events processed so far  <<<===
AthenaEventLoopMgr   INFO   ===>>>  start processing event #186568452, run #327265 18 events processed so far  <<<===
AthenaEventLoopMgr   INFO   ===>>>  done processing event #186568452, run #327265 19 events processed so far  <<<===
AthenaEventLoopMgr   INFO   ===>>>  start processing event #186580451, run #327265 19 events processed so far  <<<===
AthenaEventLoopMgr   INFO   ===>>>  done processing event #186580451, run #327265 20 events processed so far  <<<===
AthenaEventLoopMgr   INFO   ===>>>  start processing event #186535608, run #327265 20 events processed so far  <<<===
AthenaEventLoopMgr   INFO   ===>>>  done processing event #186535608, run #327265 21 events processed so far  <<<===
AthenaEventLoopMgr   INFO   ===>>>  start processing event #186583753, run #327265 21 events processed so far  <<<===
AthenaEventLoopMgr   INFO   ===>>>  done processing event #186583753, run #327265 22 events processed so far  <<<===
AthenaEventLoopMgr   INFO   ===>>>  start processing event #186553141, run #327265 22 events processed so far  <<<===
AthenaEventLoopMgr   INFO   ===>>>  done processing event #186553141, run #327265 23 events processed so far  <<<===
AthenaEventLoopMgr   INFO   ===>>>  start processing event #186582746, run #327265 23 events processed so far  <<<===
AthenaEventLoopMgr   INFO   ===>>>  done processing event #186582746, run #327265 24 events processed so far  <<<===
AthenaEventLoopMgr   INFO   ===>>>  start processing event #186583174, run #327265 24 events processed so far  <<<===
AthenaEventLoopMgr   INFO   ===>>>  done processing event #186583174, run #327265 25 events processed so far  <<<===
AthenaEventLoopMgr   INFO   ===>>>  start processing event #186590851, run #327265 25 events processed so far  <<<===
AthenaEventLoopMgr   INFO   ===>>>  done processing event #186590851, run #327265 26 events processed so far  <<<===
AthenaEventLoopMgr   INFO   ===>>>  start processing event #186585306, run #327265 26 events processed so far  <<<===
AthenaEventLoopMgr   INFO   ===>>>  done processing event #186585306, run #327265 27 events processed so far  <<<===
AthenaEventLoopMgr   INFO   ===>>>  start processing event #186575285, run #327265 27 events processed so far  <<<===
AthenaEventLoopMgr   INFO   ===>>>  done processing event #186575285, run #327265 28 events processed so far  <<<===
AthenaEventLoopMgr   INFO   ===>>>  start processing event #186585984, run #327265 28 events processed so far  <<<===
AthenaEventLoopMgr   INFO   ===>>>  done processing event #186585984, run #327265 29 events processed so far  <<<===
AthenaEventLoopMgr   INFO   ===>>>  start processing event #186539710, run #327265 29 events processed so far  <<<===
AthenaEventLoopMgr   INFO   ===>>>  done processing event #186539710, run #327265 30 events processed so far  <<<===
AthenaEventLoopMgr   INFO   ===>>>  start processing event #186591032, run #327265 30 events processed so far  <<<===
AthenaEventLoopMgr   INFO   ===>>>  done processing event #186591032, run #327265 31 events processed so far  <<<===
AthenaEventLoopMgr   INFO   ===>>>  start processing event #186588956, run #327265 31 events processed so far  <<<===
AthenaEventLoopMgr   INFO   ===>>>  done processing event #186588956, run #327265 32 events processed so far  <<<===
AthenaEventLoopMgr   INFO   ===>>>  start processing event #186576768, run #327265 32 events processed so far  <<<===
AthenaEventLoopMgr   INFO   ===>>>  done processing event #186576768, run #327265 33 events processed so far  <<<===
AthenaEventLoopMgr   INFO   ===>>>  start processing event #186601222, run #327265 33 events processed so far  <<<===
AthenaEventLoopMgr   INFO   ===>>>  done processing event #186601222, run #327265 34 events processed so far  <<<===
AthenaEventLoopMgr   INFO   ===>>>  start processing event #186572663, run #327265 34 events processed so far  <<<===
AthenaEventLoopMgr   INFO   ===>>>  done processing event #186572663, run #327265 35 events processed so far  <<<===
AthenaEventLoopMgr   INFO   ===>>>  start processing event #186577411, run #327265 35 events processed so far  <<<===
AthenaEventLoopMgr   INFO   ===>>>  done processing event #186577411, run #327265 36 events processed so far  <<<===
AthenaEventLoopMgr   INFO   ===>>>  start processing event #186599854, run #327265 36 events processed so far  <<<===
AthenaEventLoopMgr   INFO   ===>>>  done processing event #186599854, run #327265 37 events processed so far  <<<===
AthenaEventLoopMgr   INFO   ===>>>  start processing event #186604353, run #327265 37 events processed so far  <<<===
AthenaEventLoopMgr   INFO   ===>>>  done processing event #186604353, run #327265 38 events processed so far  <<<===
AthenaEventLoopMgr   INFO   ===>>>  start processing event #186612782, run #327265 38 events processed so far  <<<===
AthenaEventLoopMgr   INFO   ===>>>  done processing event #186612782, run #327265 39 events processed so far  <<<===
AthenaEventLoopMgr   INFO   ===>>>  start processing event #186591907, run #327265 39 events processed so far  <<<===
AthenaEventLoopMgr   INFO   ===>>>  done processing event #186591907, run #327265 40 events processed so far  <<<===
AthenaEventLoopMgr   INFO   ===>>>  start processing event #186570839, run #327265 40 events processed so far  <<<===
AthenaEventLoopMgr   INFO   ===>>>  done processing event #186570839, run #327265 41 events processed so far  <<<===
AthenaEventLoopMgr   INFO   ===>>>  start processing event #186601132, run #327265 41 events processed so far  <<<===
AthenaEventLoopMgr   INFO   ===>>>  done processing event #186601132, run #327265 42 events processed so far  <<<===
AthenaEventLoopMgr   INFO   ===>>>  start processing event #186597670, run #327265 42 events processed so far  <<<===
AthenaEventLoopMgr   INFO   ===>>>  done processing event #186597670, run #327265 43 events processed so far  <<<===
AthenaEventLoopMgr   INFO   ===>>>  start processing event #186607522, run #327265 43 events processed so far  <<<===
AthenaEventLoopMgr   INFO   ===>>>  done processing event #186607522, run #327265 44 events processed so far  <<<===
AthenaEventLoopMgr   INFO   ===>>>  start processing event #186526080, run #327265 44 events processed so far  <<<===
AthenaEventLoopMgr   INFO   ===>>>  done processing event #186526080, run #327265 45 events processed so far  <<<===
AthenaEventLoopMgr   INFO   ===>>>  start processing event #186602200, run #327265 45 events processed so far  <<<===
AthenaEventLoopMgr   INFO   ===>>>  done processing event #186602200, run #327265 46 events processed so far  <<<===
AthenaEventLoopMgr   INFO   ===>>>  start processing event #186560321, run #327265 46 events processed so far  <<<===
AthenaEventLoopMgr   INFO   ===>>>  done processing event #186560321, run #327265 47 events processed so far  <<<===
AthenaEventLoopMgr   INFO   ===>>>  start processing event #186624442, run #327265 47 events processed so far  <<<===
AthenaEventLoopMgr   INFO   ===>>>  done processing event #186624442, run #327265 48 events processed so far  <<<===
AthenaEventLoopMgr   INFO   ===>>>  start processing event #186608781, run #327265 48 events processed so far  <<<===
AthenaEventLoopMgr   INFO   ===>>>  done processing event #186608781, run #327265 49 events processed so far  <<<===
AthenaEventLoopMgr   INFO   ===>>>  start processing event #186550866, run #327265 49 events processed so far  <<<===
AthenaEventLoopMgr   INFO   ===>>>  done processing event #186550866, run #327265 50 events processed so far  <<<===
AthenaEventLoopMgr   INFO   ===>>>  start processing event #186628839, run #327265 50 events processed so far  <<<===
AthenaEventLoopMgr   INFO   ===>>>  done processing event #186628839, run #327265 51 events processed so far  <<<===
AthenaEventLoopMgr   INFO   ===>>>  start processing event #186623350, run #327265 51 events processed so far  <<<===
AthenaEventLoopMgr   INFO   ===>>>  done processing event #186623350, run #327265 52 events processed so far  <<<===
AthenaEventLoopMgr   INFO   ===>>>  start processing event #186632949, run #327265 52 events processed so far  <<<===
AthenaEventLoopMgr   INFO   ===>>>  done processing event #186632949, run #327265 53 events processed so far  <<<===
AthenaEventLoopMgr   INFO   ===>>>  start processing event #186571041, run #327265 53 events processed so far  <<<===
AthenaEventLoopMgr   INFO   ===>>>  done processing event #186571041, run #327265 54 events processed so far  <<<===
AthenaEventLoopMgr   INFO   ===>>>  start processing event #186626376, run #327265 54 events processed so far  <<<===
AthenaEventLoopMgr   INFO   ===>>>  done processing event #186626376, run #327265 55 events processed so far  <<<===
AthenaEventLoopMgr   INFO   ===>>>  start processing event #186617693, run #327265 55 events processed so far  <<<===
AthenaEventLoopMgr   INFO   ===>>>  done processing event #186617693, run #327265 56 events processed so far  <<<===
AthenaEventLoopMgr   INFO   ===>>>  start processing event #186564608, run #327265 56 events processed so far  <<<===
AthenaEventLoopMgr   INFO   ===>>>  done processing event #186564608, run #327265 57 events processed so far  <<<===
AthenaEventLoopMgr   INFO   ===>>>  start processing event #186555851, run #327265 57 events processed so far  <<<===
AthenaEventLoopMgr   INFO   ===>>>  done processing event #186555851, run #327265 58 events processed so far  <<<===
AthenaEventLoopMgr   INFO   ===>>>  start processing event #186643444, run #327265 58 events processed so far  <<<===
AthenaEventLoopMgr   INFO   ===>>>  done processing event #186643444, run #327265 59 events processed so far  <<<===
AthenaEventLoopMgr   INFO   ===>>>  start processing event #186632654, run #327265 59 events processed so far  <<<===
AthenaEventLoopMgr   INFO   ===>>>  done processing event #186632654, run #327265 60 events processed so far  <<<===
AthenaEventLoopMgr   INFO   ===>>>  start processing event #186636034, run #327265 60 events processed so far  <<<===
AthenaEventLoopMgr   INFO   ===>>>  done processing event #186636034, run #327265 61 events processed so far  <<<===
AthenaEventLoopMgr   INFO   ===>>>  start processing event #186542869, run #327265 61 events processed so far  <<<===
AthenaEventLoopMgr   INFO   ===>>>  done processing event #186542869, run #327265 62 events processed so far  <<<===
AthenaEventLoopMgr   INFO   ===>>>  start processing event #186517781, run #327265 62 events processed so far  <<<===
AthenaEventLoopMgr   INFO   ===>>>  done processing event #186517781, run #327265 63 events processed so far  <<<===
AthenaEventLoopMgr   INFO   ===>>>  start processing event #186559285, run #327265 63 events processed so far  <<<===
AthenaEventLoopMgr   INFO   ===>>>  done processing event #186559285, run #327265 64 events processed so far  <<<===
AthenaEventLoopMgr   INFO   ===>>>  start processing event #186643065, run #327265 64 events processed so far  <<<===
AthenaEventLoopMgr   INFO   ===>>>  done processing event #186643065, run #327265 65 events processed so far  <<<===
AthenaEventLoopMgr   INFO   ===>>>  start processing event #186658559, run #327265 65 events processed so far  <<<===
AthenaEventLoopMgr   INFO   ===>>>  done processing event #186658559, run #327265 66 events processed so far  <<<===
AthenaEventLoopMgr   INFO   ===>>>  start processing event #186655355, run #327265 66 events processed so far  <<<===
AthenaEventLoopMgr   INFO   ===>>>  done processing event #186655355, run #327265 67 events processed so far  <<<===
AthenaEventLoopMgr   INFO   ===>>>  start processing event #186601977, run #327265 67 events processed so far  <<<===
AthenaEventLoopMgr   INFO   ===>>>  done processing event #186601977, run #327265 68 events processed so far  <<<===
AthenaEventLoopMgr   INFO   ===>>>  start processing event #186584562, run #327265 68 events processed so far  <<<===
AthenaEventLoopMgr   INFO   ===>>>  done processing event #186584562, run #327265 69 events processed so far  <<<===
AthenaEventLoopMgr   INFO   ===>>>  start processing event #186593754, run #327265 69 events processed so far  <<<===
AthenaEventLoopMgr   INFO   ===>>>  done processing event #186593754, run #327265 70 events processed so far  <<<===
AthenaEventLoopMgr   INFO   ===>>>  start processing event #186613131, run #327265 70 events processed so far  <<<===
AthenaEventLoopMgr   INFO   ===>>>  done processing event #186613131, run #327265 71 events processed so far  <<<===
AthenaEventLoopMgr   INFO   ===>>>  start processing event #186668507, run #327265 71 events processed so far  <<<===
AthenaEventLoopMgr   INFO   ===>>>  done processing event #186668507, run #327265 72 events processed so far  <<<===
AthenaEventLoopMgr   INFO   ===>>>  start processing event #186605769, run #327265 72 events processed so far  <<<===
AthenaEventLoopMgr   INFO   ===>>>  done processing event #186605769, run #327265 73 events processed so far  <<<===
AthenaEventLoopMgr   INFO   ===>>>  start processing event #186675279, run #327265 73 events processed so far  <<<===
AthenaEventLoopMgr   INFO   ===>>>  done processing event #186675279, run #327265 74 events processed so far  <<<===
AthenaEventLoopMgr   INFO   ===>>>  start processing event #186648601, run #327265 74 events processed so far  <<<===
AthenaEventLoopMgr   INFO   ===>>>  done processing event #186648601, run #327265 75 events processed so far  <<<===
AthenaEventLoopMgr   INFO   ===>>>  start processing event #186586172, run #327265 75 events processed so far  <<<===
AthenaEventLoopMgr   INFO   ===>>>  done processing event #186586172, run #327265 76 events processed so far  <<<===
AthenaEventLoopMgr   INFO   ===>>>  start processing event #186594108, run #327265 76 events processed so far  <<<===
AthenaEventLoopMgr   INFO   ===>>>  done processing event #186594108, run #327265 77 events processed so far  <<<===
AthenaEventLoopMgr   INFO   ===>>>  start processing event #186587808, run #327265 77 events processed so far  <<<===
AthenaEventLoopMgr   INFO   ===>>>  done processing event #186587808, run #327265 78 events processed so far  <<<===
AthenaEventLoopMgr   INFO   ===>>>  start processing event #186559989, run #327265 78 events processed so far  <<<===
AthenaEventLoopMgr   INFO   ===>>>  done processing event #186559989, run #327265 79 events processed so far  <<<===
AthenaEventLoopMgr   INFO   ===>>>  start processing event #186694427, run #327265 79 events processed so far  <<<===
AthenaEventLoopMgr   INFO   ===>>>  done processing event #186694427, run #327265 80 events processed so far  <<<===
AthenaEventLoopMgr   INFO   ===>>>  start processing event #186560463, run #327265 80 events processed so far  <<<===
AthenaEventLoopMgr   INFO   ===>>>  done processing event #186560463, run #327265 81 events processed so far  <<<===
AthenaEventLoopMgr   INFO   ===>>>  start processing event #186656654, run #327265 81 events processed so far  <<<===
AthenaEventLoopMgr   INFO   ===>>>  done processing event #186656654, run #327265 82 events processed so far  <<<===
AthenaEventLoopMgr   INFO   ===>>>  start processing event #186669690, run #327265 82 events processed so far  <<<===
AthenaEventLoopMgr   INFO   ===>>>  done processing event #186669690, run #327265 83 events processed so far  <<<===
AthenaEventLoopMgr   INFO   ===>>>  start processing event #186661885, run #327265 83 events processed so far  <<<===
AthenaEventLoopMgr   INFO   ===>>>  done processing event #186661885, run #327265 84 events processed so far  <<<===
AthenaEventLoopMgr   INFO   ===>>>  start processing event #186696271, run #327265 84 events processed so far  <<<===
AthenaEventLoopMgr   INFO   ===>>>  done processing event #186696271, run #327265 85 events processed so far  <<<===
AthenaEventLoopMgr   INFO   ===>>>  start processing event #186679566, run #327265 85 events processed so far  <<<===
AthenaEventLoopMgr   INFO   ===>>>  done processing event #186679566, run #327265 86 events processed so far  <<<===
AthenaEventLoopMgr   INFO   ===>>>  start processing event #186698691, run #327265 86 events processed so far  <<<===
AthenaEventLoopMgr   INFO   ===>>>  done processing event #186698691, run #327265 87 events processed so far  <<<===
AthenaEventLoopMgr   INFO   ===>>>  start processing event #186690050, run #327265 87 events processed so far  <<<===
AthenaEventLoopMgr   INFO   ===>>>  done processing event #186690050, run #327265 88 events processed so far  <<<===
AthenaEventLoopMgr   INFO   ===>>>  start processing event #186652514, run #327265 88 events processed so far  <<<===
AthenaEventLoopMgr   INFO   ===>>>  done processing event #186652514, run #327265 89 events processed so far  <<<===
AthenaEventLoopMgr   INFO   ===>>>  start processing event #186681251, run #327265 89 events processed so far  <<<===
AthenaEventLoopMgr   INFO   ===>>>  done processing event #186681251, run #327265 90 events processed so far  <<<===
AthenaEventLoopMgr   INFO   ===>>>  start processing event #186702451, run #327265 90 events processed so far  <<<===
AthenaEventLoopMgr   INFO   ===>>>  done processing event #186702451, run #327265 91 events processed so far  <<<===
AthenaEventLoopMgr   INFO   ===>>>  start processing event #186604733, run #327265 91 events processed so far  <<<===
AthenaEventLoopMgr   INFO   ===>>>  done processing event #186604733, run #327265 92 events processed so far  <<<===
AthenaEventLoopMgr   INFO   ===>>>  start processing event #186701849, run #327265 92 events processed so far  <<<===
AthenaEventLoopMgr   INFO   ===>>>  done processing event #186701849, run #327265 93 events processed so far  <<<===
AthenaEventLoopMgr   INFO   ===>>>  start processing event #186711201, run #327265 93 events processed so far  <<<===
AthenaEventLoopMgr   INFO   ===>>>  done processing event #186711201, run #327265 94 events processed so far  <<<===
AthenaEventLoopMgr   INFO   ===>>>  start processing event #186707463, run #327265 94 events processed so far  <<<===
AthenaEventLoopMgr   INFO   ===>>>  done processing event #186707463, run #327265 95 events processed so far  <<<===
AthenaEventLoopMgr   INFO   ===>>>  start processing event #186689265, run #327265 95 events processed so far  <<<===
AthenaEventLoopMgr   INFO   ===>>>  done processing event #186689265, run #327265 96 events processed so far  <<<===
AthenaEventLoopMgr   INFO   ===>>>  start processing event #186712432, run #327265 96 events processed so far  <<<===
AthenaEventLoopMgr   INFO   ===>>>  done processing event #186712432, run #327265 97 events processed so far  <<<===
AthenaEventLoopMgr   INFO   ===>>>  start processing event #186719092, run #327265 97 events processed so far  <<<===
AthenaEventLoopMgr   INFO   ===>>>  done processing event #186719092, run #327265 98 events processed so far  <<<===
AthenaEventLoopMgr   INFO   ===>>>  start processing event #186705874, run #327265 98 events processed so far  <<<===
AthenaEventLoopMgr   INFO   ===>>>  done processing event #186705874, run #327265 99 events processed so far  <<<===
AthenaEventLoopMgr   INFO   ===>>>  start processing event #186712152, run #327265 99 events processed so far  <<<===
AthenaEventLoopMgr   INFO   ===>>>  done processing event #186712152, run #327265 100 events processed so far  <<<===
AthenaEventLoopMgr   INFO   ===>>>  start processing event #186709416, run #327265 100 events processed so far  <<<===
AthenaEventLoopMgr   INFO   ===>>>  done processing event #186709416, run #327265 101 events processed so far  <<<===
AthenaEventLoopMgr   INFO   ===>>>  start processing event #186648363, run #327265 101 events processed so far  <<<===
AthenaEventLoopMgr   INFO   ===>>>  done processing event #186648363, run #327265 102 events processed so far  <<<===
AthenaEventLoopMgr   INFO   ===>>>  start processing event #186672590, run #327265 102 events processed so far  <<<===
AthenaEventLoopMgr   INFO   ===>>>  done processing event #186672590, run #327265 103 events processed so far  <<<===
AthenaEventLoopMgr   INFO   ===>>>  start processing event #186735944, run #327265 103 events processed so far  <<<===
AthenaEventLoopMgr   INFO   ===>>>  done processing event #186735944, run #327265 104 events processed so far  <<<===
AthenaEventLoopMgr   INFO   ===>>>  start processing event #186656866, run #327265 104 events processed so far  <<<===
AthenaEventLoopMgr   INFO   ===>>>  done processing event #186656866, run #327265 105 events processed so far  <<<===
AthenaEventLoopMgr   INFO   ===>>>  start processing event #186719941, run #327265 105 events processed so far  <<<===
AthenaEventLoopMgr   INFO   ===>>>  done processing event #186719941, run #327265 106 events processed so far  <<<===
AthenaEventLoopMgr   INFO   ===>>>  start processing event #186725877, run #327265 106 events processed so far  <<<===
AthenaEventLoopMgr   INFO   ===>>>  done processing event #186725877, run #327265 107 events processed so far  <<<===
AthenaEventLoopMgr   INFO   ===>>>  start processing event #186710147, run #327265 107 events processed so far  <<<===
AthenaEventLoopMgr   INFO   ===>>>  done processing event #186710147, run #327265 108 events processed so far  <<<===
AthenaEventLoopMgr   INFO   ===>>>  start processing event #186729622, run #327265 108 events processed so far  <<<===
AthenaEventLoopMgr   INFO   ===>>>  done processing event #186729622, run #327265 109 events processed so far  <<<===
AthenaEventLoopMgr   INFO   ===>>>  start processing event #186719439, run #327265 109 events processed so far  <<<===
AthenaEventLoopMgr   INFO   ===>>>  done processing event #186719439, run #327265 110 events processed so far  <<<===
AthenaEventLoopMgr   INFO   ===>>>  start processing event #186662104, run #327265 110 events processed so far  <<<===
AthenaEventLoopMgr   INFO   ===>>>  done processing event #186662104, run #327265 111 events processed so far  <<<===
AthenaEventLoopMgr   INFO   ===>>>  start processing event #186718858, run #327265 111 events processed so far  <<<===
AthenaEventLoopMgr   INFO   ===>>>  done processing event #186718858, run #327265 112 events processed so far  <<<===
AthenaEventLoopMgr   INFO   ===>>>  start processing event #186696696, run #327265 112 events processed so far  <<<===
AthenaEventLoopMgr   INFO   ===>>>  done processing event #186696696, run #327265 113 events processed so far  <<<===
AthenaEventLoopMgr   INFO   ===>>>  start processing event #186723374, run #327265 113 events processed so far  <<<===
AthenaEventLoopMgr   INFO   ===>>>  done processing event #186723374, run #327265 114 events processed so far  <<<===
AthenaEventLoopMgr   INFO   ===>>>  start processing event #186676771, run #327265 114 events processed so far  <<<===
AthenaEventLoopMgr   INFO   ===>>>  done processing event #186676771, run #327265 115 events processed so far  <<<===
AthenaEventLoopMgr   INFO   ===>>>  start processing event #186714379, run #327265 115 events processed so far  <<<===
AthenaEventLoopMgr   INFO   ===>>>  done processing event #186714379, run #327265 116 events processed so far  <<<===
AthenaEventLoopMgr   INFO   ===>>>  start processing event #186753188, run #327265 116 events processed so far  <<<===
AthenaEventLoopMgr   INFO   ===>>>  done processing event #186753188, run #327265 117 events processed so far  <<<===
AthenaEventLoopMgr   INFO   ===>>>  start processing event #186768110, run #327265 117 events processed so far  <<<===
AthenaEventLoopMgr   INFO   ===>>>  done processing event #186768110, run #327265 118 events processed so far  <<<===
AthenaEventLoopMgr   INFO   ===>>>  start processing event #186715681, run #327265 118 events processed so far  <<<===
AthenaEventLoopMgr   INFO   ===>>>  done processing event #186715681, run #327265 119 events processed so far  <<<===
AthenaEventLoopMgr   INFO   ===>>>  start processing event #186694508, run #327265 119 events processed so far  <<<===
AthenaEventLoopMgr   INFO   ===>>>  done processing event #186694508, run #327265 120 events processed so far  <<<===
AthenaEventLoopMgr   INFO   ===>>>  start processing event #186749947, run #327265 120 events processed so far  <<<===
AthenaEventLoopMgr   INFO   ===>>>  done processing event #186749947, run #327265 121 events processed so far  <<<===
AthenaEventLoopMgr   INFO   ===>>>  start processing event #186702141, run #327265 121 events processed so far  <<<===
AthenaEventLoopMgr   INFO   ===>>>  done processing event #186702141, run #327265 122 events processed so far  <<<===
AthenaEventLoopMgr   INFO   ===>>>  start processing event #186742388, run #327265 122 events processed so far  <<<===
AthenaEventLoopMgr   INFO   ===>>>  done processing event #186742388, run #327265 123 events processed so far  <<<===
AthenaEventLoopMgr   INFO   ===>>>  start processing event #186763234, run #327265 123 events processed so far  <<<===
AthenaEventLoopMgr   INFO   ===>>>  done processing event #186763234, run #327265 124 events processed so far  <<<===
AthenaEventLoopMgr   INFO   ===>>>  start processing event #186672468, run #327265 124 events processed so far  <<<===
AthenaEventLoopMgr   INFO   ===>>>  done processing event #186672468, run #327265 125 events processed so far  <<<===
AthenaEventLoopMgr   INFO   ===>>>  start processing event #186764005, run #327265 125 events processed so far  <<<===
AthenaEventLoopMgr   INFO   ===>>>  done processing event #186764005, run #327265 126 events processed so far  <<<===
AthenaEventLoopMgr   INFO   ===>>>  start processing event #186746683, run #327265 126 events processed so far  <<<===
AthenaEventLoopMgr   INFO   ===>>>  done processing event #186746683, run #327265 127 events processed so far  <<<===
AthenaEventLoopMgr   INFO   ===>>>  start processing event #186659212, run #327265 127 events processed so far  <<<===
AthenaEventLoopMgr   INFO   ===>>>  done processing event #186659212, run #327265 128 events processed so far  <<<===
AthenaEventLoopMgr   INFO   ===>>>  start processing event #186785946, run #327265 128 events processed so far  <<<===
AthenaEventLoopMgr   INFO   ===>>>  done processing event #186785946, run #327265 129 events processed so far  <<<===
AthenaEventLoopMgr   INFO   ===>>>  start processing event #186702220, run #327265 129 events processed so far  <<<===
AthenaEventLoopMgr   INFO   ===>>>  done processing event #186702220, run #327265 130 events processed so far  <<<===
AthenaEventLoopMgr   INFO   ===>>>  start processing event #186616169, run #327265 130 events processed so far  <<<===
AthenaEventLoopMgr   INFO   ===>>>  done processing event #186616169, run #327265 131 events processed so far  <<<===
AthenaEventLoopMgr   INFO   ===>>>  start processing event #186701524, run #327265 131 events processed so far  <<<===
AthenaEventLoopMgr   INFO   ===>>>  done processing event #186701524, run #327265 132 events processed so far  <<<===
AthenaEventLoopMgr   INFO   ===>>>  start processing event #186758085, run #327265 132 events processed so far  <<<===
AthenaEventLoopMgr   INFO   ===>>>  done processing event #186758085, run #327265 133 events processed so far  <<<===
AthenaEventLoopMgr   INFO   ===>>>  start processing event #186726977, run #327265 133 events processed so far  <<<===
AthenaEventLoopMgr   INFO   ===>>>  done processing event #186726977, run #327265 134 events processed so far  <<<===
AthenaEventLoopMgr   INFO   ===>>>  start processing event #186740235, run #327265 134 events processed so far  <<<===
AthenaEventLoopMgr   INFO   ===>>>  done processing event #186740235, run #327265 135 events processed so far  <<<===
AthenaEventLoopMgr   INFO   ===>>>  start processing event #186788124, run #327265 135 events processed so far  <<<===
AthenaEventLoopMgr   INFO   ===>>>  done processing event #186788124, run #327265 136 events processed so far  <<<===
AthenaEventLoopMgr   INFO   ===>>>  start processing event #186708778, run #327265 136 events processed so far  <<<===
AthenaEventLoopMgr   INFO   ===>>>  done processing event #186708778, run #327265 137 events processed so far  <<<===
AthenaEventLoopMgr   INFO   ===>>>  start processing event #186795239, run #327265 137 events processed so far  <<<===
AthenaEventLoopMgr   INFO   ===>>>  done processing event #186795239, run #327265 138 events processed so far  <<<===
AthenaEventLoopMgr   INFO   ===>>>  start processing event #186723887, run #327265 138 events processed so far  <<<===
AthenaEventLoopMgr   INFO   ===>>>  done processing event #186723887, run #327265 139 events processed so far  <<<===
AthenaEventLoopMgr   INFO   ===>>>  start processing event #186775492, run #327265 139 events processed so far  <<<===
AthenaEventLoopMgr   INFO   ===>>>  done processing event #186775492, run #327265 140 events processed so far  <<<===
AthenaEventLoopMgr   INFO   ===>>>  start processing event #186682091, run #327265 140 events processed so far  <<<===
AthenaEventLoopMgr   INFO   ===>>>  done processing event #186682091, run #327265 141 events processed so far  <<<===
AthenaEventLoopMgr   INFO   ===>>>  start processing event #186753997, run #327265 141 events processed so far  <<<===
AthenaEventLoopMgr   INFO   ===>>>  done processing event #186753997, run #327265 142 events processed so far  <<<===
AthenaEventLoopMgr   INFO   ===>>>  start processing event #186764460, run #327265 142 events processed so far  <<<===
AthenaEventLoopMgr   INFO   ===>>>  done processing event #186764460, run #327265 143 events processed so far  <<<===
AthenaEventLoopMgr   INFO   ===>>>  start processing event #186745693, run #327265 143 events processed so far  <<<===
AthenaEventLoopMgr   INFO   ===>>>  done processing event #186745693, run #327265 144 events processed so far  <<<===
AthenaEventLoopMgr   INFO   ===>>>  start processing event #186710688, run #327265 144 events processed so far  <<<===
AthenaEventLoopMgr   INFO   ===>>>  done processing event #186710688, run #327265 145 events processed so far  <<<===
AthenaEventLoopMgr   INFO   ===>>>  start processing event #186802326, run #327265 145 events processed so far  <<<===
AthenaEventLoopMgr   INFO   ===>>>  done processing event #186802326, run #327265 146 events processed so far  <<<===
AthenaEventLoopMgr   INFO   ===>>>  start processing event #186797801, run #327265 146 events processed so far  <<<===
AthenaEventLoopMgr   INFO   ===>>>  done processing event #186797801, run #327265 147 events processed so far  <<<===
AthenaEventLoopMgr   INFO   ===>>>  start processing event #186778551, run #327265 147 events processed so far  <<<===
AthenaEventLoopMgr   INFO   ===>>>  done processing event #186778551, run #327265 148 events processed so far  <<<===
AthenaEventLoopMgr   INFO   ===>>>  start processing event #186813147, run #327265 148 events processed so far  <<<===
AthenaEventLoopMgr   INFO   ===>>>  done processing event #186813147, run #327265 149 events processed so far  <<<===
AthenaEventLoopMgr   INFO   ===>>>  start processing event #186785797, run #327265 149 events processed so far  <<<===
AthenaEventLoopMgr   INFO   ===>>>  done processing event #186785797, run #327265 150 events processed so far  <<<===
AthenaEventLoopMgr   INFO   ===>>>  start processing event #186685966, run #327265 150 events processed so far  <<<===
AthenaEventLoopMgr   INFO   ===>>>  done processing event #186685966, run #327265 151 events processed so far  <<<===
AthenaEventLoopMgr   INFO   ===>>>  start processing event #186811385, run #327265 151 events processed so far  <<<===
AthenaEventLoopMgr   INFO   ===>>>  done processing event #186811385, run #327265 152 events processed so far  <<<===
AthenaEventLoopMgr   INFO   ===>>>  start processing event #186814497, run #327265 152 events processed so far  <<<===
AthenaEventLoopMgr   INFO   ===>>>  done processing event #186814497, run #327265 153 events processed so far  <<<===
AthenaEventLoopMgr   INFO   ===>>>  start processing event #186756848, run #327265 153 events processed so far  <<<===
AthenaEventLoopMgr   INFO   ===>>>  done processing event #186756848, run #327265 154 events processed so far  <<<===
AthenaEventLoopMgr   INFO   ===>>>  start processing event #186818234, run #327265 154 events processed so far  <<<===
AthenaEventLoopMgr   INFO   ===>>>  done processing event #186818234, run #327265 155 events processed so far  <<<===
AthenaEventLoopMgr   INFO   ===>>>  start processing event #186836460, run #327265 155 events processed so far  <<<===
AthenaEventLoopMgr   INFO   ===>>>  done processing event #186836460, run #327265 156 events processed so far  <<<===
AthenaEventLoopMgr   INFO   ===>>>  start processing event #186840455, run #327265 156 events processed so far  <<<===
AthenaEventLoopMgr   INFO   ===>>>  done processing event #186840455, run #327265 157 events processed so far  <<<===
AthenaEventLoopMgr   INFO   ===>>>  start processing event #186837707, run #327265 157 events processed so far  <<<===
AthenaEventLoopMgr   INFO   ===>>>  done processing event #186837707, run #327265 158 events processed so far  <<<===
AthenaEventLoopMgr   INFO   ===>>>  start processing event #186824767, run #327265 158 events processed so far  <<<===
AthenaEventLoopMgr   INFO   ===>>>  done processing event #186824767, run #327265 159 events processed so far  <<<===
AthenaEventLoopMgr   INFO   ===>>>  start processing event #186809298, run #327265 159 events processed so far  <<<===
AthenaEventLoopMgr   INFO   ===>>>  done processing event #186809298, run #327265 160 events processed so far  <<<===
AthenaEventLoopMgr   INFO   ===>>>  start processing event #186838388, run #327265 160 events processed so far  <<<===
AthenaEventLoopMgr   INFO   ===>>>  done processing event #186838388, run #327265 161 events processed so far  <<<===
AthenaEventLoopMgr   INFO   ===>>>  start processing event #186781049, run #327265 161 events processed so far  <<<===
AthenaEventLoopMgr   INFO   ===>>>  done processing event #186781049, run #327265 162 events processed so far  <<<===
AthenaEventLoopMgr   INFO   ===>>>  start processing event #186830888, run #327265 162 events processed so far  <<<===
AthenaEventLoopMgr   INFO   ===>>>  done processing event #186830888, run #327265 163 events processed so far  <<<===
AthenaEventLoopMgr   INFO   ===>>>  start processing event #186838981, run #327265 163 events processed so far  <<<===
AthenaEventLoopMgr   INFO   ===>>>  done processing event #186838981, run #327265 164 events processed so far  <<<===
AthenaEventLoopMgr   INFO   ===>>>  start processing event #186847210, run #327265 164 events processed so far  <<<===
AthenaEventLoopMgr   INFO   ===>>>  done processing event #186847210, run #327265 165 events processed so far  <<<===
AthenaEventLoopMgr   INFO   ===>>>  start processing event #186836465, run #327265 165 events processed so far  <<<===
AthenaEventLoopMgr   INFO   ===>>>  done processing event #186836465, run #327265 166 events processed so far  <<<===
AthenaEventLoopMgr   INFO   ===>>>  start processing event #186831188, run #327265 166 events processed so far  <<<===
AthenaEventLoopMgr   INFO   ===>>>  done processing event #186831188, run #327265 167 events processed so far  <<<===
AthenaEventLoopMgr   INFO   ===>>>  start processing event #186848540, run #327265 167 events processed so far  <<<===
AthenaEventLoopMgr   INFO   ===>>>  done processing event #186848540, run #327265 168 events processed so far  <<<===
AthenaEventLoopMgr   INFO   ===>>>  start processing event #186792811, run #327265 168 events processed so far  <<<===
AthenaEventLoopMgr   INFO   ===>>>  done processing event #186792811, run #327265 169 events processed so far  <<<===
AthenaEventLoopMgr   INFO   ===>>>  start processing event #186853421, run #327265 169 events processed so far  <<<===
AthenaEventLoopMgr   INFO   ===>>>  done processing event #186853421, run #327265 170 events processed so far  <<<===
AthenaEventLoopMgr   INFO   ===>>>  start processing event #186846289, run #327265 170 events processed so far  <<<===
AthenaEventLoopMgr   INFO   ===>>>  done processing event #186846289, run #327265 171 events processed so far  <<<===
AthenaEventLoopMgr   INFO   ===>>>  start processing event #186816237, run #327265 171 events processed so far  <<<===
AthenaEventLoopMgr   INFO   ===>>>  done processing event #186816237, run #327265 172 events processed so far  <<<===
AthenaEventLoopMgr   INFO   ===>>>  start processing event #186829848, run #327265 172 events processed so far  <<<===
AthenaEventLoopMgr   INFO   ===>>>  done processing event #186829848, run #327265 173 events processed so far  <<<===
AthenaEventLoopMgr   INFO   ===>>>  start processing event #186864525, run #327265 173 events processed so far  <<<===
AthenaEventLoopMgr   INFO   ===>>>  done processing event #186864525, run #327265 174 events processed so far  <<<===
AthenaEventLoopMgr   INFO   ===>>>  start processing event #186840237, run #327265 174 events processed so far  <<<===
AthenaEventLoopMgr   INFO   ===>>>  done processing event #186840237, run #327265 175 events processed so far  <<<===
AthenaEventLoopMgr   INFO   ===>>>  start processing event #186837137, run #327265 175 events processed so far  <<<===
AthenaEventLoopMgr   INFO   ===>>>  done processing event #186837137, run #327265 176 events processed so far  <<<===
AthenaEventLoopMgr   INFO   ===>>>  start processing event #186780407, run #327265 176 events processed so far  <<<===
AthenaEventLoopMgr   INFO   ===>>>  done processing event #186780407, run #327265 177 events processed so far  <<<===
AthenaEventLoopMgr   INFO   ===>>>  start processing event #186788595, run #327265 177 events processed so far  <<<===
AthenaEventLoopMgr   INFO   ===>>>  done processing event #186788595, run #327265 178 events processed so far  <<<===
AthenaEventLoopMgr   INFO   ===>>>  start processing event #186799596, run #327265 178 events processed so far  <<<===
AthenaEventLoopMgr   INFO   ===>>>  done processing event #186799596, run #327265 179 events processed so far  <<<===
AthenaEventLoopMgr   INFO   ===>>>  start processing event #186860115, run #327265 179 events processed so far  <<<===
AthenaEventLoopMgr   INFO   ===>>>  done processing event #186860115, run #327265 180 events processed so far  <<<===
AthenaEventLoopMgr   INFO   ===>>>  start processing event #186871617, run #327265 180 events processed so far  <<<===
AthenaEventLoopMgr   INFO   ===>>>  done processing event #186871617, run #327265 181 events processed so far  <<<===
AthenaEventLoopMgr   INFO   ===>>>  start processing event #186866190, run #327265 181 events processed so far  <<<===
AthenaEventLoopMgr   INFO   ===>>>  done processing event #186866190, run #327265 182 events processed so far  <<<===
AthenaEventLoopMgr   INFO   ===>>>  start processing event #186770048, run #327265 182 events processed so far  <<<===
AthenaEventLoopMgr   INFO   ===>>>  done processing event #186770048, run #327265 183 events processed so far  <<<===
AthenaEventLoopMgr   INFO   ===>>>  start processing event #186884605, run #327265 183 events processed so far  <<<===
AthenaEventLoopMgr   INFO   ===>>>  done processing event #186884605, run #327265 184 events processed so far  <<<===
AthenaEventLoopMgr   INFO   ===>>>  start processing event #186887133, run #327265 184 events processed so far  <<<===
AthenaEventLoopMgr   INFO   ===>>>  done processing event #186887133, run #327265 185 events processed so far  <<<===
AthenaEventLoopMgr   INFO   ===>>>  start processing event #186744842, run #327265 185 events processed so far  <<<===
AthenaEventLoopMgr   INFO   ===>>>  done processing event #186744842, run #327265 186 events processed so far  <<<===
AthenaEventLoopMgr   INFO   ===>>>  start processing event #186858735, run #327265 186 events processed so far  <<<===
AthenaEventLoopMgr   INFO   ===>>>  done processing event #186858735, run #327265 187 events processed so far  <<<===
AthenaEventLoopMgr   INFO   ===>>>  start processing event #186895282, run #327265 187 events processed so far  <<<===
AthenaEventLoopMgr   INFO   ===>>>  done processing event #186895282, run #327265 188 events processed so far  <<<===
AthenaEventLoopMgr   INFO   ===>>>  start processing event #186868084, run #327265 188 events processed so far  <<<===
AthenaEventLoopMgr   INFO   ===>>>  done processing event #186868084, run #327265 189 events processed so far  <<<===
AthenaEventLoopMgr   INFO   ===>>>  start processing event #186875877, run #327265 189 events processed so far  <<<===
AthenaEventLoopMgr   INFO   ===>>>  done processing event #186875877, run #327265 190 events processed so far  <<<===
AthenaEventLoopMgr   INFO   ===>>>  start processing event #186778521, run #327265 190 events processed so far  <<<===
AthenaEventLoopMgr   INFO   ===>>>  done processing event #186778521, run #327265 191 events processed so far  <<<===
AthenaEventLoopMgr   INFO   ===>>>  start processing event #186825494, run #327265 191 events processed so far  <<<===
AthenaEventLoopMgr   INFO   ===>>>  done processing event #186825494, run #327265 192 events processed so far  <<<===
AthenaEventLoopMgr   INFO   ===>>>  start processing event #186907029, run #327265 192 events processed so far  <<<===
AthenaEventLoopMgr   INFO   ===>>>  done processing event #186907029, run #327265 193 events processed so far  <<<===
AthenaEventLoopMgr   INFO   ===>>>  start processing event #186892099, run #327265 193 events processed so far  <<<===
AthenaEventLoopMgr   INFO   ===>>>  done processing event #186892099, run #327265 194 events processed so far  <<<===
AthenaEventLoopMgr   INFO   ===>>>  start processing event #186921290, run #327265 194 events processed so far  <<<===
AthenaEventLoopMgr   INFO   ===>>>  done processing event #186921290, run #327265 195 events processed so far  <<<===
AthenaEventLoopMgr   INFO   ===>>>  start processing event #186919780, run #327265 195 events processed so far  <<<===
AthenaEventLoopMgr   INFO   ===>>>  done processing event #186919780, run #327265 196 events processed so far  <<<===
AthenaEventLoopMgr   INFO   ===>>>  start processing event #186917083, run #327265 196 events processed so far  <<<===
AthenaEventLoopMgr   INFO   ===>>>  done processing event #186917083, run #327265 197 events processed so far  <<<===
AthenaEventLoopMgr   INFO   ===>>>  start processing event #186848118, run #327265 197 events processed so far  <<<===
AthenaEventLoopMgr   INFO   ===>>>  done processing event #186848118, run #327265 198 events processed so far  <<<===
AthenaEventLoopMgr   INFO   ===>>>  start processing event #186866322, run #327265 198 events processed so far  <<<===
AthenaEventLoopMgr   INFO   ===>>>  done processing event #186866322, run #327265 199 events processed so far  <<<===
AthenaEventLoopMgr   INFO   ===>>>  start processing event #186896738, run #327265 199 events processed so far  <<<===
AthenaEventLoopMgr   INFO   ===>>>  done processing event #186896738, run #327265 200 events processed so far  <<<===
AthenaEventLoopMgr   INFO   ===>>>  start processing event #186920902, run #327265 200 events processed so far  <<<===
AthenaEventLoopMgr   INFO   ===>>>  done processing event #186920902, run #327265 201 events processed so far  <<<===
AthenaEventLoopMgr   INFO   ===>>>  start processing event #186860164, run #327265 201 events processed so far  <<<===
AthenaEventLoopMgr   INFO   ===>>>  done processing event #186860164, run #327265 202 events processed so far  <<<===
AthenaEventLoopMgr   INFO   ===>>>  start processing event #186915572, run #327265 202 events processed so far  <<<===
AthenaEventLoopMgr   INFO   ===>>>  done processing event #186915572, run #327265 203 events processed so far  <<<===
AthenaEventLoopMgr   INFO   ===>>>  start processing event #186894279, run #327265 203 events processed so far  <<<===
AthenaEventLoopMgr   INFO   ===>>>  done processing event #186894279, run #327265 204 events processed so far  <<<===
AthenaEventLoopMgr   INFO   ===>>>  start processing event #186739247, run #327265 204 events processed so far  <<<===
AthenaEventLoopMgr   INFO   ===>>>  done processing event #186739247, run #327265 205 events processed so far  <<<===
AthenaEventLoopMgr   INFO   ===>>>  start processing event #186935750, run #327265 205 events processed so far  <<<===
AthenaEventLoopMgr   INFO   ===>>>  done processing event #186935750, run #327265 206 events processed so far  <<<===
AthenaEventLoopMgr   INFO   ===>>>  start processing event #186863475, run #327265 206 events processed so far  <<<===
AthenaEventLoopMgr   INFO   ===>>>  done processing event #186863475, run #327265 207 events processed so far  <<<===
AthenaEventLoopMgr   INFO   ===>>>  start processing event #186852555, run #327265 207 events processed so far  <<<===
AthenaEventLoopMgr   INFO   ===>>>  done processing event #186852555, run #327265 208 events processed so far  <<<===
AthenaEventLoopMgr   INFO   ===>>>  start processing event #186882810, run #327265 208 events processed so far  <<<===
AthenaEventLoopMgr   INFO   ===>>>  done processing event #186882810, run #327265 209 events processed so far  <<<===
AthenaEventLoopMgr   INFO   ===>>>  start processing event #186935468, run #327265 209 events processed so far  <<<===
AthenaEventLoopMgr   INFO   ===>>>  done processing event #186935468, run #327265 210 events processed so far  <<<===
AthenaEventLoopMgr   INFO   ===>>>  start processing event #186711649, run #327265 210 events processed so far  <<<===
AthenaEventLoopMgr   INFO   ===>>>  done processing event #186711649, run #327265 211 events processed so far  <<<===
AthenaEventLoopMgr   INFO   ===>>>  start processing event #186910160, run #327265 211 events processed so far  <<<===
AthenaEventLoopMgr   INFO   ===>>>  done processing event #186910160, run #327265 212 events processed so far  <<<===
AthenaEventLoopMgr   INFO   ===>>>  start processing event #186944545, run #327265 212 events processed so far  <<<===
AthenaEventLoopMgr   INFO   ===>>>  done processing event #186944545, run #327265 213 events processed so far  <<<===
AthenaEventLoopMgr   INFO   ===>>>  start processing event #186952911, run #327265 213 events processed so far  <<<===
AthenaEventLoopMgr   INFO   ===>>>  done processing event #186952911, run #327265 214 events processed so far  <<<===
AthenaEventLoopMgr   INFO   ===>>>  start processing event #186924618, run #327265 214 events processed so far  <<<===
AthenaEventLoopMgr   INFO   ===>>>  done processing event #186924618, run #327265 215 events processed so far  <<<===
AthenaEventLoopMgr   INFO   ===>>>  start processing event #186916578, run #327265 215 events processed so far  <<<===
AthenaEventLoopMgr   INFO   ===>>>  done processing event #186916578, run #327265 216 events processed so far  <<<===
AthenaEventLoopMgr   INFO   ===>>>  start processing event #186959341, run #327265 216 events processed so far  <<<===
AthenaEventLoopMgr   INFO   ===>>>  done processing event #186959341, run #327265 217 events processed so far  <<<===
AthenaEventLoopMgr   INFO   ===>>>  start processing event #186912302, run #327265 217 events processed so far  <<<===
AthenaEventLoopMgr   INFO   ===>>>  done processing event #186912302, run #327265 218 events processed so far  <<<===
AthenaEventLoopMgr   INFO   ===>>>  start processing event #186963661, run #327265 218 events processed so far  <<<===
AthenaEventLoopMgr   INFO   ===>>>  done processing event #186963661, run #327265 219 events processed so far  <<<===
AthenaEventLoopMgr   INFO   ===>>>  start processing event #186905553, run #327265 219 events processed so far  <<<===
AthenaEventLoopMgr   INFO   ===>>>  done processing event #186905553, run #327265 220 events processed so far  <<<===
AthenaEventLoopMgr   INFO   ===>>>  start processing event #186900745, run #327265 220 events processed so far  <<<===
AthenaEventLoopMgr   INFO   ===>>>  done processing event #186900745, run #327265 221 events processed so far  <<<===
AthenaEventLoopMgr   INFO   ===>>>  start processing event #186938008, run #327265 221 events processed so far  <<<===
AthenaEventLoopMgr   INFO   ===>>>  done processing event #186938008, run #327265 222 events processed so far  <<<===
AthenaEventLoopMgr   INFO   ===>>>  start processing event #186864200, run #327265 222 events processed so far  <<<===
AthenaEventLoopMgr   INFO   ===>>>  done processing event #186864200, run #327265 223 events processed so far  <<<===
AthenaEventLoopMgr   INFO   ===>>>  start processing event #186967525, run #327265 223 events processed so far  <<<===
AthenaEventLoopMgr   INFO   ===>>>  done processing event #186967525, run #327265 224 events processed so far  <<<===
AthenaEventLoopMgr   INFO   ===>>>  start processing event #186937177, run #327265 224 events processed so far  <<<===
AthenaEventLoopMgr   INFO   ===>>>  done processing event #186937177, run #327265 225 events processed so far  <<<===
AthenaEventLoopMgr   INFO   ===>>>  start processing event #186957692, run #327265 225 events processed so far  <<<===
AthenaEventLoopMgr   INFO   ===>>>  done processing event #186957692, run #327265 226 events processed so far  <<<===
AthenaEventLoopMgr   INFO   ===>>>  start processing event #186945772, run #327265 226 events processed so far  <<<===
AthenaEventLoopMgr   INFO   ===>>>  done processing event #186945772, run #327265 227 events processed so far  <<<===
AthenaEventLoopMgr   INFO   ===>>>  start processing event #186989883, run #327265 227 events processed so far  <<<===
AthenaEventLoopMgr   INFO   ===>>>  done processing event #186989883, run #327265 228 events processed so far  <<<===
AthenaEventLoopMgr   INFO   ===>>>  start processing event #186926295, run #327265 228 events processed so far  <<<===
AthenaEventLoopMgr   INFO   ===>>>  done processing event #186926295, run #327265 229 events processed so far  <<<===
AthenaEventLoopMgr   INFO   ===>>>  start processing event #186954552, run #327265 229 events processed so far  <<<===
AthenaEventLoopMgr   INFO   ===>>>  done processing event #186954552, run #327265 230 events processed so far  <<<===
AthenaEventLoopMgr   INFO   ===>>>  start processing event #186890872, run #327265 230 events processed so far  <<<===
AthenaEventLoopMgr   INFO   ===>>>  done processing event #186890872, run #327265 231 events processed so far  <<<===
AthenaEventLoopMgr   INFO   ===>>>  start processing event #186920732, run #327265 231 events processed so far  <<<===
AthenaEventLoopMgr   INFO   ===>>>  done processing event #186920732, run #327265 232 events processed so far  <<<===
AthenaEventLoopMgr   INFO   ===>>>  start processing event #186961898, run #327265 232 events processed so far  <<<===
AthenaEventLoopMgr   INFO   ===>>>  done processing event #186961898, run #327265 233 events processed so far  <<<===
AthenaEventLoopMgr   INFO   ===>>>  start processing event #186965145, run #327265 233 events processed so far  <<<===
AthenaEventLoopMgr   INFO   ===>>>  done processing event #186965145, run #327265 234 events processed so far  <<<===
AthenaEventLoopMgr   INFO   ===>>>  start processing event #186996129, run #327265 234 events processed so far  <<<===
AthenaEventLoopMgr   INFO   ===>>>  done processing event #186996129, run #327265 235 events processed so far  <<<===
AthenaEventLoopMgr   INFO   ===>>>  start processing event #186986130, run #327265 235 events processed so far  <<<===
AthenaEventLoopMgr   INFO   ===>>>  done processing event #186986130, run #327265 236 events processed so far  <<<===
AthenaEventLoopMgr   INFO   ===>>>  start processing event #186993826, run #327265 236 events processed so far  <<<===
AthenaEventLoopMgr   INFO   ===>>>  done processing event #186993826, run #327265 237 events processed so far  <<<===
AthenaEventLoopMgr   INFO   ===>>>  start processing event #186988901, run #327265 237 events processed so far  <<<===
AthenaEventLoopMgr   INFO   ===>>>  done processing event #186988901, run #327265 238 events processed so far  <<<===
AthenaEventLoopMgr   INFO   ===>>>  start processing event #186902269, run #327265 238 events processed so far  <<<===
AthenaEventLoopMgr   INFO   ===>>>  done processing event #186902269, run #327265 239 events processed so far  <<<===
AthenaEventLoopMgr   INFO   ===>>>  start processing event #186938613, run #327265 239 events processed so far  <<<===
AthenaEventLoopMgr   INFO   ===>>>  done processing event #186938613, run #327265 240 events processed so far  <<<===
AthenaEventLoopMgr   INFO   ===>>>  start processing event #186973357, run #327265 240 events processed so far  <<<===
AthenaEventLoopMgr   INFO   ===>>>  done processing event #186973357, run #327265 241 events processed so far  <<<===
AthenaEventLoopMgr   INFO   ===>>>  start processing event #187008237, run #327265 241 events processed so far  <<<===
AthenaEventLoopMgr   INFO   ===>>>  done processing event #187008237, run #327265 242 events processed so far  <<<===
AthenaEventLoopMgr   INFO   ===>>>  start processing event #186863906, run #327265 242 events processed so far  <<<===
AthenaEventLoopMgr   INFO   ===>>>  done processing event #186863906, run #327265 243 events processed so far  <<<===
AthenaEventLoopMgr   INFO   ===>>>  start processing event #186951585, run #327265 243 events processed so far  <<<===
AthenaEventLoopMgr   INFO   ===>>>  done processing event #186951585, run #327265 244 events processed so far  <<<===
AthenaEventLoopMgr   INFO   ===>>>  start processing event #186982294, run #327265 244 events processed so far  <<<===
AthenaEventLoopMgr   INFO   ===>>>  done processing event #186982294, run #327265 245 events processed so far  <<<===
AthenaEventLoopMgr   INFO   ===>>>  start processing event #187008101, run #327265 245 events processed so far  <<<===
AthenaEventLoopMgr   INFO   ===>>>  done processing event #187008101, run #327265 246 events processed so far  <<<===
AthenaEventLoopMgr   INFO   ===>>>  start processing event #186850748, run #327265 246 events processed so far  <<<===
AthenaEventLoopMgr   INFO   ===>>>  done processing event #186850748, run #327265 247 events processed so far  <<<===
AthenaEventLoopMgr   INFO   ===>>>  start processing event #186997627, run #327265 247 events processed so far  <<<===
AthenaEventLoopMgr   INFO   ===>>>  done processing event #186997627, run #327265 248 events processed so far  <<<===
AthenaEventLoopMgrWARNING INFO message limit (500) reached for AthenaEventLoopMgr. Suppressing further output.
EventSelector       DEBUG Calling EventSelectorByteStream::stop()
Domain[ROOT_All]     INFO >   Deaccess DbDomain     READ      [ROOT_All] 
ApplicationMgr       INFO Application Manager Stopped successfully
IncidentProcAlg1     INFO Finalize
IncidentProcAlg2     INFO Finalize
ByteStreamCnvSvc    DEBUG releasing all workers
AthDictLoaderSvc     INFO in finalize...
ToolSvc              INFO Removing all tools created by ToolSvc
ToolSvc.ByteStr...   INFO in finalize()
*****Chrono*****     INFO ****************************************************************************************************
*****Chrono*****     INFO  The Final CPU consumption ( Chrono ) Table (ordered)
*****Chrono*****     INFO ****************************************************************************************************
ChronoStatSvc        INFO Time User   : Tot= 6.01  [s]                                             #=  1
*****Chrono*****     INFO ****************************************************************************************************
ChronoStatSvc.f...   INFO  Service finalized successfully 
ApplicationMgr       INFO Application Manager Finalized successfully
ApplicationMgr       INFO Application Manager Terminated successfully
Py:Athena            INFO leaving with code 0: "successful run"
Listing sources of suppressed message: 
=====================================================
 Message Source              |   Level |    Count
-----------------------------+---------+-------------
 AthenaEventLoopMgr          |    INFO |     1003
=====================================================
